nama,harga,link gambar
Samsung Galaxy Xcover 5,Rp2.999.000,https://www.hallogsm.com/wp-content/uploads/2021/03/Samsung-Galaxy-Xcover-5-300x300.jpg
Samsung Galaxy M62,Rp6.699.000,https://www.hallogsm.com/wp-content/uploads/2021/02/Samsung-Galaxy-M62-300x300.jpg
Samsung Galaxy A52 4G,Rp4.999.000,https://www.hallogsm.com/wp-content/uploads/2021/02/Samsung-Galaxy-A52-SM-A525F-300x300.jpg
Samsung Galaxy A52,Rp4.999.000,https://www.hallogsm.com/wp-content/uploads/2021/02/Samsung-Galaxy-A52-300x300.jpg
Samsung Galaxy A72 5G,Rp9.999.999,https://www.hallogsm.com/wp-content/uploads/2020/09/Samsung-Galaxy-A72-SM-A725F-300x300.jpg
Samsung Galaxy F62,Rp4.599.000,https://www.hallogsm.com/wp-content/uploads/2021/02/Samsung-Galaxy-F62-300x300.jpg
Samsung Galaxy A10s (2020),Rp1.399.000,https://www.hallogsm.com/wp-content/uploads/2021/02/Samsung-Galaxy-A10s-2020-300x300.jpg
Samsung Galaxy M02,Rp1.349.000,https://www.hallogsm.com/wp-content/uploads/2021/01/Samsung-Galaxy-A02-300x300.jpg
Samsung Galaxy A02,Rp1.599.000,https://www.hallogsm.com/wp-content/uploads/2021/01/Samsung-Galaxy-A02-1-300x300.jpg
Samsung Galaxy M02s,Rp1.999.000,https://www.hallogsm.com/wp-content/uploads/2021/01/Samsung-Galaxy-M02s-300x300.jpg
Samsung Galaxy A32 5G,Rp4.499.000,https://www.hallogsm.com/wp-content/uploads/2020/12/Samsung-Galaxy-A32-4G-300x300.jpg
Samsung Galaxy A32 4G,Rp3.599.000,https://www.hallogsm.com/wp-content/uploads/2020/12/Samsung-Galaxy-A32-4G-300x300.jpg
Samsung Galaxy A32,Rp3.599.000,https://www.hallogsm.com/wp-content/uploads/2020/12/Samsung-Galaxy-A32-300x300.jpg
Samsung Galaxy A52 5G,Rp5.399.000,https://www.hallogsm.com/wp-content/uploads/2020/12/Samsung-Galaxy-A52-5G-300x300.jpg
Samsung Galaxy S21 Plus 5G,Rp12.999.000,https://www.hallogsm.com/wp-content/uploads/2020/12/Samsung-Galaxy-S21-Plus-5G-300x300.jpg
Samsung Galaxy S21 5G,Rp10.999.000,https://www.hallogsm.com/wp-content/uploads/2020/12/Samsung-Galaxy-S21-5G-2-300x300.jpg
Samsung Galaxy S21 Ultra 5G,Rp15.999.000,https://www.hallogsm.com/wp-content/uploads/2020/12/Samsung-Galaxy-S21-Ultra-5G-1-300x300.jpg
Samsung Galaxy A12,Rp2.999.000,https://www.hallogsm.com/wp-content/uploads/2020/12/Samsung-Galaxy-A12-300x300.jpg
Samsung Galaxy A02s,Rp2.549.000,https://www.hallogsm.com/wp-content/uploads/2020/12/Samsung-Galaxy-A02s-300x300.jpg
Samsung Galaxy M21s,Rp3.889.000,https://www.hallogsm.com/wp-content/uploads/2020/12/Samsung-Galaxy-M21s-300x300.jpg
Samsung Galaxy M12,Rp2.099.000,https://www.hallogsm.com/wp-content/uploads/2020/11/Samsung-Galaxy-M12-SM-M127F-300x300.jpg
Samsung Galaxy F41,Rp3.399.000,https://www.hallogsm.com/wp-content/uploads/2020/11/Harga-Samsung-Galaxy-F41-300x300.jpg
Samsung Galaxy M31 Prime,Rp3.999.000,https://www.hallogsm.com/wp-content/uploads/2020/10/Samsung-Galaxy-M31-Prime-Edition-300x300.jpg
Samsung Galaxy A3 Core,Rp1.199.000,https://www.hallogsm.com/wp-content/uploads/2019/09/Samsung-Galaxy-A2-Core-300x300.jpg
Samsung Galaxy A72,Rp5.999.000,https://www.hallogsm.com/wp-content/uploads/2020/09/Samsung-Galaxy-A72-SM-A725F-300x300.jpg
Samsung Galaxy A72 4G,Rp5.999.000,https://www.hallogsm.com/wp-content/uploads/2020/09/Samsung-Galaxy-A72-SM-A725F-300x300.jpg
Samsung Galaxy Tab A7 10.4 (2020),Rp4.199.000,https://www.hallogsm.com/wp-content/uploads/2020/09/Samsung-Galaxy-Tab-A7-10.4-2020-300x300.jpg
Samsung Galaxy A42,Rp9.999.999,https://www.hallogsm.com/wp-content/uploads/2020/09/Samsung-Galaxy-A42-300x300.jpg
Samsung Galaxy Z Fold 2 5G,Rp33.999.000,https://www.hallogsm.com/wp-content/uploads/2020/09/Harga-hp-Samsung-Galaxy-Fold-2-300x300.jpg
Samsung Galaxy Tab S7 Plus 5G,Rp9.999.999,https://www.hallogsm.com/wp-content/uploads/2020/09/Samsung-Galaxy-Tab-S7-Plus-5G-300x300.jpg
Samsung Galaxy Tab S7+,Rp16.999.000,https://www.hallogsm.com/wp-content/uploads/2020/09/Samsung-Galaxy-Tab-S7-Plus-5G-300x300.jpg
Samsung Galaxy Tab S7 5G,Rp9.999.999,https://www.hallogsm.com/wp-content/uploads/2020/09/Samsung-Galaxy-Tab-S7-5G-300x300.jpg
Samsung Galaxy Tab S7,Rp12.999.000,https://www.hallogsm.com/wp-content/uploads/2020/07/Samsung-Galaxy-Tab-S7-300x300.jpg
Samsung Galaxy S20 Fan Edition,Rp9.999.999,https://www.hallogsm.com/wp-content/uploads/2020/06/Samsung-Galaxy-S20-1-300x300.jpg
Samsung Galaxy S20 Fan Edition (FE),Rp9.999.000,https://www.hallogsm.com/wp-content/uploads/2020/06/Samsung-Galaxy-S20-1-300x300.jpg
Samsung Galaxy Note 20 Ultra 5G,Rp22.999.000,https://www.hallogsm.com/wp-content/uploads/2020/09/Harga-Samsung-Galaxy-Note-20-Ultra-300x300.jpg
Samsung Galaxy Note 20 Ultra,Rp17.999.000,https://www.hallogsm.com/wp-content/uploads/2020/09/Galaxy-Note-20-Ultra-300x300.jpg
Samsung Galaxy Note 20 5G,Rp17.299.000,https://www.hallogsm.com/wp-content/uploads/2020/09/Galaxy-Note-20-5G-300x300.jpg
Samsung Galaxy Note 20,Rp14.499.000,https://www.hallogsm.com/wp-content/uploads/2020/09/Harga-hp-Samsung-Galaxy-Note-20-300x300.jpg
Samsung Galaxy M31s,Rp3.999.000,https://www.hallogsm.com/wp-content/uploads/2020/09/Harga-hp-Samsung-Galaxy-M31s-300x300.jpg
Samsung Galaxy M01s,Rp1.999.000,https://www.hallogsm.com/wp-content/uploads/2020/07/Harga-hp-Samsung-Galaxy-M01s-300x300.jpg
Samsung Galaxy Z Flip 5G,Rp9.999.999,https://www.hallogsm.com/wp-content/uploads/2020/07/Harga-Samsung-Galaxy-Z-Flip-300x300.jpg
Samsung Galaxy A01 Core,Rp999.000,https://www.hallogsm.com/wp-content/uploads/2020/06/Samsung-Galaxy-A01-Core-300x300.jpg
Samsung Galaxy S20 Plus BTS Edition,Rp17.499.000,https://www.hallogsm.com/wp-content/uploads/2020/06/Samsung-Galaxy-S20-Plus-BTS-Edition-300x300.jpg
Samsung Galaxy M01,Rp1.799.000,https://www.hallogsm.com/wp-content/uploads/2020/06/Samsung-Galaxy-A01-300x300.jpg
Samsung Galaxy S20 Ultra 5G UW,Rp9.999.999,https://www.hallogsm.com/wp-content/uploads/2020/06/Harga-Samsung-Galaxy-S20-Ultra-5G-300x300.jpg
Samsung Galaxy A Quantum,Rp7.999.000,https://www.hallogsm.com/wp-content/uploads/2020/06/Harga-Samsung-Galaxy-A71-5G-300x300.jpg
Samsung Galaxy Tab S6 Lite,Rp6.999.000,https://www.hallogsm.com/wp-content/uploads/2020/06/Samsung-Galaxy-Tab-S6-Lite-300x300.jpg
Samsung Galaxy J2 Core (2020),Rp1.299.000,https://www.hallogsm.com/wp-content/uploads/2019/09/j2core_main_1.0-300x300.jpg
Samsung Galaxy A51 5G,Rp9.999.999,https://www.hallogsm.com/wp-content/uploads/2020/04/Harga-Samsung-Galaxy-A51-5G-300x300.jpg
Samsung Galaxy A21,Rp3.499.000,https://www.hallogsm.com/wp-content/uploads/2020/04/Samsung-Galaxy-A21-300x300.jpg
Samsung Galaxy A21s,Rp2.799.000,https://www.hallogsm.com/wp-content/uploads/2020/06/Samsung-Galaxy-A21-300x300.jpg
Samsung Galaxy A31,Rp4.199.000,https://www.hallogsm.com/wp-content/uploads/2020/03/Samsung-Galaxy-A31-300x300.jpg
Samsung Galaxy A71 5G,Rp9.999.999,https://www.hallogsm.com/wp-content/uploads/2019/12/Samsung-Galaxy-A71-300x300.jpg
Samsung Galaxy M51,Rp5.499.000,https://www.hallogsm.com/wp-content/uploads/2020/03/Samsung-Galaxy-M51-300x300.jpg
Samsung Galaxy A41,Rp9.999.999,https://www.hallogsm.com/wp-content/uploads/2020/03/Harga-Samsung-Galaxy-A41-300x300.jpg
Samsung Galaxy A41 (SM-A415F),Rp9.999.999,https://www.hallogsm.com/wp-content/uploads/2020/06/Harga-Samsung-Galaxy-A41-300x300.jpg
Samsung Galaxy A11,Rp1.899.000,https://www.hallogsm.com/wp-content/uploads/2020/03/Harga-Samsung-Galaxy-A11-300x300.jpg
Samsung Galaxy M11,Rp1.649.000,https://www.hallogsm.com/wp-content/uploads/2020/03/Samsung-Galaxy-M11-300x300.jpg
Samsung Galaxy M21,Rp3.199.000,https://www.hallogsm.com/wp-content/uploads/2020/03/Samsung-Galaxy-M21-300x300.jpg
Samsung Galaxy S20 Ultra,Rp18.499.000,https://www.hallogsm.com/wp-content/uploads/2020/02/Harga-Samsung-Galaxy-S20-Ultra-5G-300x300.jpg
Samsung Galaxy M31,Rp3.299.000,https://www.hallogsm.com/wp-content/uploads/2020/02/Samsung-Galaxy-M31-300x300.jpg
Samsung Galaxy Xcover Pro,Rp7.999.000,https://www.hallogsm.com/wp-content/uploads/2020/02/Samsung-Galaxy-Xcover-Pro-300x300.jpg
Samsung Galaxy Z Flip,Rp22.599.000,https://www.hallogsm.com/wp-content/uploads/2020/02/Samsung-Galaxy-Z-Flip-300x300.jpg
Samsung Galaxy S11 Plus,Rp9.999.999,https://www.hallogsm.com/wp-content/uploads/2020/02/Samsung-Galaxy-S11-300x300.jpg
Samsung Galaxy S11,Rp9.999.999,https://www.hallogsm.com/wp-content/uploads/2020/02/Samsung-Galaxy-S11-300x300.jpg
Samsung Galaxy S20 Plus,Rp9.999.999,https://www.hallogsm.com/wp-content/uploads/2020/01/Samsung-Galaxy-S20-Ultra-5G-300x300.jpg
Samsung Galaxy S20 Ultra 5G,Rp9.999.999,https://www.hallogsm.com/wp-content/uploads/2020/01/Samsung-Galaxy-S20-Ultra-5G-300x300.jpg
Samsung Galaxy S20 Plus 5G,Rp14.499.000,https://www.hallogsm.com/wp-content/uploads/2020/06/Harga-Samsung-Galaxy-S20-5G-300x300.jpg
Samsung Galaxy S20 5G,Rp12.999.000,https://www.hallogsm.com/wp-content/uploads/2020/06/Harga-Samsung-Galaxy-S20-5G-300x300.jpg
Samsung Galaxy S20,Rp12.999.000,https://www.hallogsm.com/wp-content/uploads/2020/06/Samsung-Galaxy-S20-1-300x300.jpg
Samsung Galaxy Note 10 Lite,Rp6.699.000,https://www.hallogsm.com/wp-content/uploads/2020/01/Samsung-Galaxy-Note-10-Lite-300x300.jpg
Samsung Galaxy Tab S6 5G,Rp11.999.000,https://www.hallogsm.com/wp-content/uploads/2019/09/Samsung-Galaxy-Tab-S6-300x300.jpg
Samsung Galaxy A01,Rp1.249.000,https://www.hallogsm.com/wp-content/uploads/2019/12/Samsung-Galaxy-A01-300x300.jpg
Samsung Galaxy A01 (SM-A015F),Rp1.499.000,https://www.hallogsm.com/wp-content/uploads/2020/06/Samsung-Galaxy-A01-300x300.jpg
Samsung Galaxy A71,Rp5.499.000,https://www.hallogsm.com/wp-content/uploads/2019/12/Samsung-Galaxy-A71-300x300.jpg
Samsung Galaxy A51,Rp4.399.000,https://www.hallogsm.com/wp-content/uploads/2019/11/Samsung-Galaxy-A51-1-300x300.jpg
Samsung Galaxy Xcover FieldPro,Rp9.999.999,https://www.hallogsm.com/wp-content/uploads/2019/11/Samsung-Galaxy-Xcover-FieldPro-300x300.jpg
Samsung Galaxy S10 Lite,Rp7.799.000,https://www.hallogsm.com/wp-content/uploads/2019/10/Samsung-Galaxy-S10-Lite-1-300x300.jpg
Samsung Galaxy A91,Rp9.999.999,https://www.hallogsm.com/wp-content/uploads/2019/08/Samsung-Galaxy-A90-5G-300x300.jpg
